[

    {
        "activity":"Sports",
        "image":"https://firebasestorage.googleapis.com/v0/b/site-org-automation.appspot.com/o/APPLICATION%2FV1%2Fdefault%20profile%20image.jpg?alt=media&token=7ea70045-3850-458b-a864-bd1561a94d42",
        "start_date":"Fri Dec 13 11:02:24 GMT+05:30 2019",
        "end_date":"Fri Dec 15 11:02:24 GMT+05:30 2019",
        "event_name":"Anveshana",
        "edittext1":"name",
        "edittext2":"mail",
        "radiobutton1":[ "male", "female"],
        "checkbox1": ["Cricket","Vollybal","Running"],
        "spinner1": ["sports","coding","dance"],
        "spinner2": ["Crafts","paperpresentation","Stalls"]
    },
    {
        "activity":"Sports",
        "image":"https://firebasestorage.googleapis.com/v0/b/site-org-automation.appspot.com/o/APPLICATION%2FV1%2Fdefault%20profile%20image.jpg?alt=media&token=7ea70045-3850-458b-a864-bd1561a94d42",
        "start_date":"Fri Dec 01 11:02:24 GMT+05:30 2019",
        "end_date":"Fri Dec  11:02:24 GMT+05:30 2019",
        "event_name":"Anveshana",
        "edittext1":"name",
        "edittext2":"mail",
        "radiobutton1":[ "male", "female"],
        "checkbox1": ["Cricket","Vollybal","Running"],
        "spinner1": ["sports","coding","dance"],
        "spinner2": ["Crafts","paperpresentation","Stalls"]
    },
    {
        "activity":"Workshops",
        "image":"https://firebasestorage.googleapis.com/v0/b/site-org-automation.appspot.com/o/APPLICATION%2FV1%2Flogo.png?alt=media&token=b3b4b2ef-2ae3-4464-b5c0-6e9ba098d948",
        "start_date":"2019-11-09",
        "end_date":"2019-12-09",
        "event_name":"Anveshana",
        "edittext1":"name",
        "edittext2":"mail",
        "radiobutton1":[ "male", "female"],
        "checkbox1": ["Cricket","Vollybal","Running"],
        "spinner1": ["sports","coding","dance"],
        "spinner2": ["Crafts","paperpresentation","Stalls"]
    },
    {
        "activity":"Sports",
        "image":"https://firebasestorage.googleapis.com/v0/b/site-org-automation.appspot.com/o/APPLICATION%2FV1%2Flogo.png?alt=media&token=b3b4b2ef-2ae3-4464-b5c0-6e9ba098d948",
        "start_date":"2019-09-09",
        "end_date":"2019-10-09",

        "event_name":"Anveshana",
        "edittext1":"name",
        "edittext2":"mail",
        "radiobutton1":[ "male", "female"],
        "checkbox1": ["Cricket","Vollybal","Running"],
        "spinner1": ["sports","coding","dance"],
        "spinner2": ["Crafts","paperpresentation","Stalls"]
    },
    {
        "activity":"Sports",
        "image":"https://firebasestorage.googleapis.com/v0/b/site-org-automation.appspot.com/o/APPLICATION%2FV1%2Flogo.png?alt=media&token=b3b4b2ef-2ae3-4464-b5c0-6e9ba098d948",
        "start_date":"2019-09-09",
        "end_date":"2019-12-09",
        "event_name":"Anveshana",
        "edittext1":"name",
        "edittext2":"mail",
        "radiobutton1":[ "male", "female"],
        "checkbox1": ["Cricket","Vollybal","Running"],
        "spinner1": ["sports","coding","dance"],
        "spinner2": ["Crafts","paperpresentation","Stalls"]
    },
    {
        "activity":"Workshops",
        "image":"https://firebasestorage.googleapis.com/v0/b/site-org-automation.appspot.com/o/APPLICATION%2FV1%2Flogo.png?alt=media&token=b3b4b2ef-2ae3-4464-b5c0-6e9ba098d948",
        "start_date":"2019-11-09",
        "end_date":"2019-12-09",

        "event_name":"Anveshana",
        "edittext1":"name",
        "edittext2":"mail",
        "radiobutton1":[ "male", "female"],
        "checkbox1": ["Cricket","Vollybal","Running"],
        "spinner1": ["sports","coding","dance"],
        "spinner2": ["Crafts","paperpresentation","Stalls"]
    },
    {
        "activity":"Sports",
        "image":"https://firebasestorage.googleapis.com/v0/b/site-org-automation.appspot.com/o/APPLICATION%2FV1%2Flogo.png?alt=media&token=b3b4b2ef-2ae3-4464-b5c0-6e9ba098d948",
        "start_date":"2019-09-09",
        "end_date":"2019-10-09",
        "event_name":"Anveshana",
        "edittext1":"name",
        "edittext2":"mail",
        "radiobutton1":[ "male", "female"],
        "checkbox1": ["Cricket","Vollybal","Running"],
        "spinner1": ["sports","coding","dance"],
        "spinner2": ["Crafts","paperpresentation","Stalls"]
    },
    {
        "activity":"Workshops",
        "image":"https://firebasestorage.googleapis.com/v0/b/site-org-automation.appspot.com/o/APPLICATION%2FV1%2Flogo.png?alt=media&token=b3b4b2ef-2ae3-4464-b5c0-6e9ba098d948",
        "start_date":"2019-09-09",
        "end_date":"2019-12-09",
        "event_name":"Anveshana",
        "edittext1":"name",
        "edittext2":"mail",
        "radiobutton1":[ "male", "female"],
        "checkbox1": ["Cricket","Vollybal","Running"],
        "spinner1": ["sports","coding","dance"],
        "spinner2": ["Crafts","paperpresentation","Stalls"]
    },
    {
        "activity":"Cultural Activities",
        "image":"https://firebasestorage.googleapis.com/v0/b/site-org-automation.appspot.com/o/APPLICATION%2FV1%2Flogo.png?alt=media&token=b3b4b2ef-2ae3-4464-b5c0-6e9ba098d948",
        "start_date":"2019-09-09",
        "end_date":"2019-12-09",
        "event_name":"Anveshana",
        "edittext1":"name",
        "edittext2":"mail",
        "radiobutton1":[ "male", "female"],
        "checkbox1": ["Cricket","Vollybal","Running"],
        "spinner1": ["sports","coding","dance"],
        "spinner2": ["Crafts","paperpresentation","Stalls"]
    },
    {
        "activity":"Workshops",
        "image":"https://firebasestorage.googleapis.com/v0/b/site-org-automation.appspot.com/o/APPLICATION%2FV1%2Flogo.png?alt=media&token=b3b4b2ef-2ae3-4464-b5c0-6e9ba098d948",
        "start_date":"2019-09-09",
        "end_date":"2019-12-09",
        "event_name":"Anveshana",
        "edittext1":"name",
        "edittext2":"mail",
        "radiobutton1":[ "male", "female"],
        "checkbox1": ["Cricket","Vollybal","Running"],
        "spinner1": ["sports","coding","dance"],
        "spinner2": ["Crafts","paperpresentation","Stalls"]
    },
    {
        "activity":"Campus Drives",
        "image":"https://firebasestorage.googleapis.com/v0/b/site-org-automation.appspot.com/o/APPLICATION%2FV1%2Flogo.png?alt=media&token=b3b4b2ef-2ae3-4464-b5c0-6e9ba098d948",
        "start_date":"2019-09-09",
        "end_date":"2019-12-09",
        "event_name":"Anveshana",
        "edittext1":"name",
        "edittext2":"mail",
        "radiobutton1":[ "male", "female"],
        "checkbox1": ["Cricket","Vollybal","Running"],
        "spinner1": ["sports","coding","dance"],
        "spinner2": ["Crafts","paperpresentation","Stalls"]
    },
    {
        "activity":"Campus Drives",
        "image":"https://firebasestorage.googleapis.com/v0/b/site-org-automation.appspot.com/o/APPLICATION%2FV1%2Flogo.png?alt=media&token=b3b4b2ef-2ae3-4464-b5c0-6e9ba098d948",
        "start_date":"2019-09-09",
        "end_date":"2019-12-09",
        "event_name":"Anveshana",
        "edittext1":"name",
        "edittext2":"mail",
        "radiobutton1":[ "male", "female"],
        "checkbox1": ["Cricket","Vollybal","Running"],
        "spinner1": ["sports","coding","dance"],
        "spinner2": ["Crafts","paperpresentation","Stalls"]
    },
    {
        "activity":"Seminars",
        "image":"https://firebasestorage.googleapis.com/v0/b/site-org-automation.appspot.com/o/APPLICATION%2FV1%2Flogo.png?alt=media&token=b3b4b2ef-2ae3-4464-b5c0-6e9ba098d948",
        "start_date":"2019-09-09",
        "end_date":"2019-12-09",
        "event_name":"Anveshana",
        "edittext1":"name",
        "edittext2":"mail",
        "radiobutton1":[ "male", "female"],
        "checkbox1": ["Cricket","Vollybal","Running"],
        "spinner1": ["sports","coding","dance"],
        "spinner2": ["Crafts","paperpresentation","Stalls"]
    }
]