[
{
    "user":"16K61A0554",
    "name":"Suresh Kalla",
    "url":"https://firebasestorage.googleapis.com/v0/b/designs-85fa1.appspot.com/o/SampleVideo_176x144_1mb.3gp?alt=media&token=7ceb7cc4-193d-4f25-b589-678ba893003c",
    "branch":"EEE"

},
{
    "user":"16K61A0554",
    "name":"Suresh Kalla",
    "url":"https://firebasestorage.googleapis.com/v0/b/designs-85fa1.appspot.com/o/SampleVideo_176x144_1mb.3gp?alt=media&token=7ceb7cc4-193d-4f25-b589-678ba893003c",
    "branch":"Mech"
},
{
    "user":"16K61A0554",
    "name":"Suresh Kalla",
    "url":"https://firebasestorage.googleapis.com/v0/b/designs-85fa1.appspot.com/o/SampleVideo_176x144_1mb.3gp?alt=media&token=7ceb7cc4-193d-4f25-b589-678ba893003c",
"branch":"CSE"
}
]