{
	"AdmissionNo":"6446",
	"RollNo":"16K61A0554",
	"image": "",
	"education":{
		"RollNo":"16K61A0554",
		"Course":"B.Tech",
		"Branch":"CSE",
		"10thMarks":"8.7",
		"Entrance Type":"EAMCET",
		"Seat Type":"CONVENOR",
		"Transport":"Tyajampudi (Route:Tyajampudi 32) Driver:M S A Chowdary, 8008007550",
		"Semester":"4/4 Semester-I",
		"Inter Marks":"957",
		"EAMCET/ECET Rank":"23532",
		"Joining Date":"06/30/2016"
	},
	"personal": {
		"Name": "KALLA NAGA SURESH",
		"Gender": "Male",
		"Phone": "9963912971",
		"Email": "suresh554@sasi.ac.in",
		"Bank": "16000804702177",
		"DOB": "05/28/1999",
		"Religion": "Hindu",
		"Caste": "OC",
		"Aadhar": "317145689850"
	},
	"Parentdetails":{
		"Father Name":"KALLA SEETA RAMANJANEYULU",
		"Mother Name":"KALLA VENKATA SATYAVATHI",
		"Father Mobile No":"9963527663",
		"Occupation":"FARMER",
		"Annual Income":"16000",
		"Mother MobileNo":"",
		"Permanent Address":"SRI KALLA SEETA RAMANJANEYULU D.NO:84/1/2 MADHYA VEEDHI TYAJAMPUDI-534 305 DEVARAPALLI MANDAL WEST GODAVARI"
	}
}